module modernc.org/ccgo

go 1.15

require (
	github.com/dustin/go-humanize v1.0.0
	github.com/edsrzf/mmap-go v0.0.0-20170320065105-0bce6a688712 // indirect
	golang.org/x/sys v0.0.0-20200930185726-fdedc70b468f
	golang.org/x/tools v0.0.0-20201121010211-780cb80bd7fb
	modernc.org/cc v1.0.0
	modernc.org/cc/v3 v3.28.3-darwin
	modernc.org/ccir v0.0.0-20181106174718-5753a3f77739
	modernc.org/crt v1.0.0
	modernc.org/golex v1.0.0 // indirect
	modernc.org/internal v1.0.0
	modernc.org/ir v1.0.0
	modernc.org/irgo v1.0.0
	modernc.org/libc v1.5.0 // indirect
	modernc.org/mathutil v1.1.1
	modernc.org/memory v1.0.1
	modernc.org/opt v0.1.1
	modernc.org/sortutil v1.0.0
	modernc.org/strutil v1.1.0
	modernc.org/virtual v1.0.0
	modernc.org/xc v1.0.0
)
